Time : 17:32:45
SQLSTATE[42S22]: Column not found: 1054 Unknown column 'info_patient.IDPAT' in 'field list'
Raw SQL : SELECT COUNT(info_patient.IDPAT) AS total 
		FROM patient P, info_patient I 
		WHERE P.IDPAT = I.IDPAT
		AND P.LOGIN = :username and I.DATEPAT = :datepat

Time : 17:32:27
SQLSTATE[42S22]: Column not found: 1054 Unknown column 'LOGIN' in 'where clause'
Raw SQL : SELECT COUNT(info_patient.IDPAT) AS total FROM info_patient WHERE LOGIN = :username and DATEPAT = :datepat

Time : 17:30:24
SQLSTATE[42S22]: Column not found: 1054 Unknown column 'LOGIN' in 'where clause'
Raw SQL : SELECT COUNT(info_patient.IDPAT) AS total FROM info_patient WHERE LOGIN = :username and DATEPAT = :datepat
